{
  "project_info": {
    "project_number": "905348194896",
    "project_id": "crashlytics-test-7b088",
    "storage_bucket": "crashlytics-test-7b088.appspot.com"
  },
  "client": [
    {
      "client_info": {
        "mobilesdk_app_id": "1:905348194896:android:68d85f530ceac06e202755",
        "android_client_info": {
          "package_name": "com.mslalith.crashlytics_test"
        }
      },
      "oauth_client": [
        {
          "client_id": "905348194896-p6lrhcon50ttcbgobp9jo8nifr5sjt0t.apps.googleusercontent.com",
          "client_type": 3
        }
      ],
      "api_key": [
        {
          "current_key": "AIzaSyAPqOFaip2E8khlCpuTjirlQtsyPzszdiE"
        }
      ],
      "services": {
        "appinvite_service": {
          "other_platform_oauth_client": [
            {
              "client_id": "905348194896-p6lrhcon50ttcbgobp9jo8nifr5sjt0t.apps.googleusercontent.com",
              "client_type": 3
            }
          ]
        }
      }
    }
  ],
  "configuration_version": "1"
}